{
    "swagger": "2.0",
    "title" : "MUSIC APP",
    "description" : "MUSIC APP",
    "basePath": "/api",
    "license": {
      "name": "MIT",
      "url": "https://opensource.org/licenses/MIT"
    },
    "version": "1.0.0",
    "securityDefinitions":{
      "basicAuth": {
          "type": "basic"
      }
    },
    "produces": ["application/json"],
    "paths" :{
      "/roles": {
        "get": {
          "tags": ["Auth"],
          "summary": "Roles for users",
          "responses": {
            "200": {
              "description": "OK"
            }
          }
        }
      },
      "/signup": {
        "post": {
          "tags": ["Auth"],
          "summary": "Signup api for new user", 
          "parameters": [
            {
              "name": "signup",
              "in": "body",
              "description": "User that we want to create",
              "schema": {
                "$ref": "#/definitions/signup"
              }
            }
          ],
          "responses": {
            "200": {
              "description": "OK",
              "schema": {
                "$ref": "#/definitions/signup"
              }
            }
          }
        }
      },
      "/login": {
        "post": {
          "tags": ["Auth"],
          "summary": "Login api for registered user", 
          "parameters": [
            {
              "name": "login",
              "in": "body",
              "description": "Login to the app",
              "schema": {
                "$ref": "#/definitions/login"
              }
            }
          ],
          "responses": {
            "200": {
              "description": "OK",
              "schema": {
                "$ref": "#/definitions/login"
              }
            }
          }
        }
      },
      "/booking/find_car": {
        "get": {
          "tags": ["Auth"],
          "summary": "find near by car for user", 
          "parameters": [
            {
              "name": "authorization",
              "in": "header",
              "type": "string",
              "required": true
            }
          ],
          "responses": {
            "200": {
              "description": "OK"
            }
          }
        }
      }
    },
    "definitions":{
      "signup": {
        "required": ["userName", "email", "password"],
        "properties": {
          "userName": {
            "type": "string",
            "example": "poojasbhrwl"
          },
          "email": {
            "type": "string",
            "example": "poojasbhrwl@gmail.com"
          },
          "password": {
            "type": "string"
          },
          "firstName": {
            "type": "string"
          },
          "lastName": {
            "type": "string"
          },
          "phoneNumber": {
            "type": "string"
          },
          "roleId": {
            "type": "integer"
          },
          "addressLine1": {
            "type": "string"
          },
          "city": {
            "type": "string"
          },
          "state": {
            "type": "string"
          },
          "zip": {
            "type": "string"
          },
          "latitude": {
            "type": "string"
          },
          "longitude": {
            "type": "string"
          }
        }
      },
      "login": {
        "required": ["userName", "password"],
        "properties": {
          "userName": {
            "type": "string",
            "example": "poojasbhrwl"
          },
          "password": {
            "type": "string"
          }
        }
      }
    }
  }